[
   {
      "id_wil":"AD000000",
      "id_negara":"AD",
      "nm_wil":"Andorra",
      "asal_wil":null,
      "kode_bps":null,
      "kode_dagri":null,
      "kode_keu":null,
      "id_induk_wilayah":null,
      "id_level_wil":"0"
   },
   {
      "id_wil":"AE000000",
      "id_negara":"AE",
      "nm_wil":"United Arab Emirates",
      "asal_wil":null,
      "kode_bps":null,
      "kode_dagri":null,
      "kode_keu":null,
      "id_induk_wilayah":null,
      "id_level_wil":"0"
   },
   {
      "id_wil":"AF000000",
      "id_negara":"AF",
      "nm_wil":"Afghanistan",
      "asal_wil":null,
      "kode_bps":null,
      "kode_dagri":null,
      "kode_keu":null,
      "id_induk_wilayah":null,
      "id_level_wil":"0"
   },
   {
      "id_wil":"AG000000",
      "id_negara":"AG",
      "nm_wil":"Antigua And Barbuda",
      "asal_wil":null,
      "kode_bps":null,
      "kode_dagri":null,
      "kode_keu":null,
      "id_induk_wilayah":null,
      "id_level_wil":"0"
   },
   {
      "id_wil":"AI000000",
      "id_negara":"AI",
      "nm_wil":"Anguilla",
      "asal_wil":null,
      "kode_bps":null,
      "kode_dagri":null,
      "kode_keu":null,
      "id_induk_wilayah":null,
      "id_level_wil":"0"
   },
   {
      "id_wil":"AL000000",
      "id_negara":"AL",
      "nm_wil":"Albania",
      "asal_wil":null,
      "kode_bps":null,
      "kode_dagri":null,
      "kode_keu":null,
      "id_induk_wilayah":null,
      "id_level_wil":"0"
   },
   {
      "id_wil":"AM000000",
      "id_negara":"AM",
      "nm_wil":"Armenia",
      "asal_wil":null,
      "kode_bps":null,
      "kode_dagri":null,
      "kode_keu":null,
      "id_induk_wilayah":null,
      "id_level_wil":"0"
   },
   {
      "id_wil":"AO000000",
      "id_negara":"AO",
      "nm_wil":"Angola",
      "asal_wil":null,
      "kode_bps":null,
      "kode_dagri":null,
      "kode_keu":null,
      "id_induk_wilayah":null,
      "id_level_wil":"0"
   },
   {
      "id_wil":"AQ000000",
      "id_negara":"AQ",
      "nm_wil":"Antarctica",
      "asal_wil":null,
      "kode_bps":null,
      "kode_dagri":null,
      "kode_keu":null,
      "id_induk_wilayah":null,
      "id_level_wil":"0"
   },
   {
      "id_wil":"AR000000",
      "id_negara":"AR",
      "nm_wil":"Argentina",
      "asal_wil":null,
      "kode_bps":null,
      "kode_dagri":null,
      "kode_keu":null,
      "id_induk_wilayah":null,
      "id_level_wil":"0"
   },
   {
      "id_wil":"AS000000",
      "id_negara":"AS",
      "nm_wil":"American Samoa",
      "asal_wil":null,
      "kode_bps":null,
      "kode_dagri":null,
      "kode_keu":null,
      "id_induk_wilayah":null,
      "id_level_wil":"0"
   },
   {
      "id_wil":"AT000000",
      "id_negara":"AT",
      "nm_wil":"Austria",
      "asal_wil":null,
      "kode_bps":null,
      "kode_dagri":null,
      "kode_keu":null,
      "id_induk_wilayah":null,
      "id_level_wil":"0"
   },
   {
      "id_wil":"AU000000",
      "id_negara":"AU",
      "nm_wil":"Australia",
      "asal_wil":null,
      "kode_bps":null,
      "kode_dagri":null,
      "kode_keu":null,
      "id_induk_wilayah":null,
      "id_level_wil":"0"
   },
   {
      "id_wil":"AW000000",
      "id_negara":"AW",
      "nm_wil":"Aruba",
      "asal_wil":null,
      "kode_bps":null,
      "kode_dagri":null,
      "kode_keu":null,
      "id_induk_wilayah":null,
      "id_level_wil":"0"
   },
   {
      "id_wil":"AZ000000",
      "id_negara":"AZ",
      "nm_wil":"Azerbaijan",
      "asal_wil":null,
      "kode_bps":null,
      "kode_dagri":null,
      "kode_keu":null,
      "id_induk_wilayah":null,
      "id_level_wil":"0"
   },
   {
      "id_wil":"BA000000",
      "id_negara":"BA",
      "nm_wil":"Bosnia And Herzegovina",
      "asal_wil":null,
      "kode_bps":null,
      "kode_dagri":null,
      "kode_keu":null,
      "id_induk_wilayah":null,
      "id_level_wil":"0"
   },
   {
      "id_wil":"BB000000",
      "id_negara":"BB",
      "nm_wil":"Barbados",
      "asal_wil":null,
      "kode_bps":null,
      "kode_dagri":null,
      "kode_keu":null,
      "id_induk_wilayah":null,
      "id_level_wil":"0"
   },
   {
      "id_wil":"BD000000",
      "id_negara":"BD",
      "nm_wil":"Bangladesh",
      "asal_wil":null,
      "kode_bps":null,
      "kode_dagri":null,
      "kode_keu":null,
      "id_induk_wilayah":null,
      "id_level_wil":"0"
   },
   {
      "id_wil":"BE000000",
      "id_negara":"BE",
      "nm_wil":"Belgium",
      "asal_wil":null,
      "kode_bps":null,
      "kode_dagri":null,
      "kode_keu":null,
      "id_induk_wilayah":null,
      "id_level_wil":"0"
   },
   {
      "id_wil":"BF000000",
      "id_negara":"BF",
      "nm_wil":"Burkina Faso",
      "asal_wil":null,
      "kode_bps":null,
      "kode_dagri":null,
      "kode_keu":null,
      "id_induk_wilayah":null,
      "id_level_wil":"0"
   },
   {
      "id_wil":"BG000000",
      "id_negara":"BG",
      "nm_wil":"Bulgaria",
      "asal_wil":null,
      "kode_bps":null,
      "kode_dagri":null,
      "kode_keu":null,
      "id_induk_wilayah":null,
      "id_level_wil":"0"
   },
   {
      "id_wil":"BH000000",
      "id_negara":"BH",
      "nm_wil":"Bahrain",
      "asal_wil":null,
      "kode_bps":null,
      "kode_dagri":null,
      "kode_keu":null,
      "id_induk_wilayah":null,
      "id_level_wil":"0"
   },
   {
      "id_wil":"BI000000",
      "id_negara":"BI",
      "nm_wil":"Burundi",
      "asal_wil":null,
      "kode_bps":null,
      "kode_dagri":null,
      "kode_keu":null,
      "id_induk_wilayah":null,
      "id_level_wil":"0"
   },
   {
      "id_wil":"BJ000000",
      "id_negara":"BJ",
      "nm_wil":"Benin",
      "asal_wil":null,
      "kode_bps":null,
      "kode_dagri":null,
      "kode_keu":null,
      "id_induk_wilayah":null,
      "id_level_wil":"0"
   },
   {
      "id_wil":"BL000000",
      "id_negara":"BL",
      "nm_wil":"Saint Bartelemey",
      "asal_wil":null,
      "kode_bps":null,
      "kode_dagri":null,
      "kode_keu":null,
      "id_induk_wilayah":null,
      "id_level_wil":"0"
   },
   {
      "id_wil":"BM000000",
      "id_negara":"BM",
      "nm_wil":"Bermuda",
      "asal_wil":null,
      "kode_bps":null,
      "kode_dagri":null,
      "kode_keu":null,
      "id_induk_wilayah":null,
      "id_level_wil":"0"
   },
   {
      "id_wil":"BN000000",
      "id_negara":"BN",
      "nm_wil":"Brunei Darussalam",
      "asal_wil":null,
      "kode_bps":null,
      "kode_dagri":null,
      "kode_keu":null,
      "id_induk_wilayah":null,
      "id_level_wil":"0"
   },
   {
      "id_wil":"BO000000",
      "id_negara":"BO",
      "nm_wil":"Bolivia",
      "asal_wil":null,
      "kode_bps":null,
      "kode_dagri":null,
      "kode_keu":null,
      "id_induk_wilayah":null,
      "id_level_wil":"0"
   },
   {
      "id_wil":"BQ000000",
      "id_negara":"BQ",
      "nm_wil":"Bonaire, Saint Eustatius and Saba",
      "asal_wil":null,
      "kode_bps":null,
      "kode_dagri":null,
      "kode_keu":null,
      "id_induk_wilayah":null,
      "id_level_wil":"0"
   },
   {
      "id_wil":"BR000000",
      "id_negara":"BR",
      "nm_wil":"Brazil",
      "asal_wil":null,
      "kode_bps":null,
      "kode_dagri":null,
      "kode_keu":null,
      "id_induk_wilayah":null,
      "id_level_wil":"0"
   },
   {
      "id_wil":"BS000000",
      "id_negara":"BS",
      "nm_wil":"Bahamas",
      "asal_wil":null,
      "kode_bps":null,
      "kode_dagri":null,
      "kode_keu":null,
      "id_induk_wilayah":null,
      "id_level_wil":"0"
   },
   {
      "id_wil":"BT000000",
      "id_negara":"BT",
      "nm_wil":"Bhutan",
      "asal_wil":null,
      "kode_bps":null,
      "kode_dagri":null,
      "kode_keu":null,
      "id_induk_wilayah":null,
      "id_level_wil":"0"
   },
   {
      "id_wil":"BV000000",
      "id_negara":"BV",
      "nm_wil":"Bouvet Island",
      "asal_wil":null,
      "kode_bps":null,
      "kode_dagri":null,
      "kode_keu":null,
      "id_induk_wilayah":null,
      "id_level_wil":"0"
   },
   {
      "id_wil":"BW000000",
      "id_negara":"BW",
      "nm_wil":"Botswana",
      "asal_wil":null,
      "kode_bps":null,
      "kode_dagri":null,
      "kode_keu":null,
      "id_induk_wilayah":null,
      "id_level_wil":"0"
   },
   {
      "id_wil":"BY000000",
      "id_negara":"BY",
      "nm_wil":"Belarus",
      "asal_wil":null,
      "kode_bps":null,
      "kode_dagri":null,
      "kode_keu":null,
      "id_induk_wilayah":null,
      "id_level_wil":"0"
   },
   {
      "id_wil":"BZ000000",
      "id_negara":"BZ",
      "nm_wil":"Belize",
      "asal_wil":null,
      "kode_bps":null,
      "kode_dagri":null,
      "kode_keu":null,
      "id_induk_wilayah":null,
      "id_level_wil":"0"
   },
   {
      "id_wil":"CN000000",
      "id_negara":"CN",
      "nm_wil":"China",
      "asal_wil":null,
      "kode_bps":null,
      "kode_dagri":null,
      "kode_keu":null,
      "id_induk_wilayah":null,
      "id_level_wil":"0"
   },
   {
      "id_wil":"CO000000",
      "id_negara":"CO",
      "nm_wil":"Colombia",
      "asal_wil":null,
      "kode_bps":null,
      "kode_dagri":null,
      "kode_keu":null,
      "id_induk_wilayah":null,
      "id_level_wil":"0"
   },
   {
      "id_wil":"CR000000",
      "id_negara":"CR",
      "nm_wil":"Costa Rica",
      "asal_wil":null,
      "kode_bps":null,
      "kode_dagri":null,
      "kode_keu":null,
      "id_induk_wilayah":null,
      "id_level_wil":"0"
   },
   {
      "id_wil":"CS000000",
      "id_negara":"CS",
      "nm_wil":"Serbia And Montenegro",
      "asal_wil":null,
      "kode_bps":null,
      "kode_dagri":null,
      "kode_keu":null,
      "id_induk_wilayah":null,
      "id_level_wil":"0"
   },
   {
      "id_wil":"CU000000",
      "id_negara":"CU",
      "nm_wil":"Cuba",
      "asal_wil":null,
      "kode_bps":null,
      "kode_dagri":null,
      "kode_keu":null,
      "id_induk_wilayah":null,
      "id_level_wil":"0"
   },
   {
      "id_wil":"CV000000",
      "id_negara":"CV",
      "nm_wil":"Cape Verde",
      "asal_wil":null,
      "kode_bps":null,
      "kode_dagri":null,
      "kode_keu":null,
      "id_induk_wilayah":null,
      "id_level_wil":"0"
   },
   {
      "id_wil":"CG000000",
      "id_negara":"CG",
      "nm_wil":"Congo",
      "asal_wil":null,
      "kode_bps":null,
      "kode_dagri":null,
      "kode_keu":null,
      "id_induk_wilayah":null,
      "id_level_wil":"0"
   },
   {
      "id_wil":"CH000000",
      "id_negara":"CH",
      "nm_wil":"Switzerland",
      "asal_wil":null,
      "kode_bps":null,
      "kode_dagri":null,
      "kode_keu":null,
      "id_induk_wilayah":null,
      "id_level_wil":"0"
   },
   {
      "id_wil":"CI000000",
      "id_negara":"CI",
      "nm_wil":"Cote D'Ivoire",
      "asal_wil":null,
      "kode_bps":null,
      "kode_dagri":null,
      "kode_keu":null,
      "id_induk_wilayah":null,
      "id_level_wil":"0"
   },
   {
      "id_wil":"CK000000",
      "id_negara":"CK",
      "nm_wil":"Cook Islands",
      "asal_wil":null,
      "kode_bps":null,
      "kode_dagri":null,
      "kode_keu":null,
      "id_induk_wilayah":null,
      "id_level_wil":"0"
   },
   {
      "id_wil":"CL000000",
      "id_negara":"CL",
      "nm_wil":"Chile",
      "asal_wil":null,
      "kode_bps":null,
      "kode_dagri":null,
      "kode_keu":null,
      "id_induk_wilayah":null,
      "id_level_wil":"0"
   },
   {
      "id_wil":"CM000000",
      "id_negara":"CM",
      "nm_wil":"Cameroon",
      "asal_wil":null,
      "kode_bps":null,
      "kode_dagri":null,
      "kode_keu":null,
      "id_induk_wilayah":null,
      "id_level_wil":"0"
   },
   {
      "id_wil":"CW000000",
      "id_negara":"CW",
      "nm_wil":"Curacao",
      "asal_wil":null,
      "kode_bps":null,
      "kode_dagri":null,
      "kode_keu":null,
      "id_induk_wilayah":null,
      "id_level_wil":"0"
   },
   {
      "id_wil":"CX000000",
      "id_negara":"CX",
      "nm_wil":"Christmas Island",
      "asal_wil":null,
      "kode_bps":null,
      "kode_dagri":null,
      "kode_keu":null,
      "id_induk_wilayah":null,
      "id_level_wil":"0"
   },
   {
      "id_wil":"CY000000",
      "id_negara":"CY",
      "nm_wil":"Cyprus",
      "asal_wil":null,
      "kode_bps":null,
      "kode_dagri":null,
      "kode_keu":null,
      "id_induk_wilayah":null,
      "id_level_wil":"0"
   },
   {
      "id_wil":"CZ000000",
      "id_negara":"CZ",
      "nm_wil":"Czech Republic",
      "asal_wil":null,
      "kode_bps":null,
      "kode_dagri":null,
      "kode_keu":null,
      "id_induk_wilayah":null,
      "id_level_wil":"0"
   },
   {
      "id_wil":"DE000000",
      "id_negara":"DE",
      "nm_wil":"Germany",
      "asal_wil":null,
      "kode_bps":null,
      "kode_dagri":null,
      "kode_keu":null,
      "id_induk_wilayah":null,
      "id_level_wil":"0"
   },
   {
      "id_wil":"DJ000000",
      "id_negara":"DJ",
      "nm_wil":"Djibouti",
      "asal_wil":null,
      "kode_bps":null,
      "kode_dagri":null,
      "kode_keu":null,
      "id_induk_wilayah":null,
      "id_level_wil":"0"
   },
   {
      "id_wil":"DK000000",
      "id_negara":"DK",
      "nm_wil":"Denmark",
      "asal_wil":null,
      "kode_bps":null,
      "kode_dagri":null,
      "kode_keu":null,
      "id_induk_wilayah":null,
      "id_level_wil":"0"
   },
   {
      "id_wil":"DM000000",
      "id_negara":"DM",
      "nm_wil":"Dominica",
      "asal_wil":null,
      "kode_bps":null,
      "kode_dagri":null,
      "kode_keu":null,
      "id_induk_wilayah":null,
      "id_level_wil":"0"
   },
   {
      "id_wil":"DO000000",
      "id_negara":"DO",
      "nm_wil":"Dominican Republic",
      "asal_wil":null,
      "kode_bps":null,
      "kode_dagri":null,
      "kode_keu":null,
      "id_induk_wilayah":null,
      "id_level_wil":"0"
   },
   {
      "id_wil":"DZ000000",
      "id_negara":"DZ",
      "nm_wil":"Algeria",
      "asal_wil":null,
      "kode_bps":null,
      "kode_dagri":null,
      "kode_keu":null,
      "id_induk_wilayah":null,
      "id_level_wil":"0"
   },
   {
      "id_wil":"EC000000",
      "id_negara":"EC",
      "nm_wil":"Ecuador",
      "asal_wil":null,
      "kode_bps":null,
      "kode_dagri":null,
      "kode_keu":null,
      "id_induk_wilayah":null,
      "id_level_wil":"0"
   },
   {
      "id_wil":"EE000000",
      "id_negara":"EE",
      "nm_wil":"Estonia",
      "asal_wil":null,
      "kode_bps":null,
      "kode_dagri":null,
      "kode_keu":null,
      "id_induk_wilayah":null,
      "id_level_wil":"0"
   },
   {
      "id_wil":"EG000000",
      "id_negara":"EG",
      "nm_wil":"Egypt",
      "asal_wil":null,
      "kode_bps":null,
      "kode_dagri":null,
      "kode_keu":null,
      "id_induk_wilayah":null,
      "id_level_wil":"0"
   },
   {
      "id_wil":"EH000000",
      "id_negara":"EH",
      "nm_wil":"Western Sahara",
      "asal_wil":null,
      "kode_bps":null,
      "kode_dagri":null,
      "kode_keu":null,
      "id_induk_wilayah":null,
      "id_level_wil":"0"
   },
   {
      "id_wil":"ER000000",
      "id_negara":"ER",
      "nm_wil":"Eritrea",
      "asal_wil":null,
      "kode_bps":null,
      "kode_dagri":null,
      "kode_keu":null,
      "id_induk_wilayah":null,
      "id_level_wil":"0"
   },
   {
      "id_wil":"ES000000",
      "id_negara":"ES",
      "nm_wil":"Spain",
      "asal_wil":null,
      "kode_bps":null,
      "kode_dagri":null,
      "kode_keu":null,
      "id_induk_wilayah":null,
      "id_level_wil":"0"
   },
   {
      "id_wil":"ET000000",
      "id_negara":"ET",
      "nm_wil":"Ethiopia",
      "asal_wil":null,
      "kode_bps":null,
      "kode_dagri":null,
      "kode_keu":null,
      "id_induk_wilayah":null,
      "id_level_wil":"0"
   },
   {
      "id_wil":"FI000000",
      "id_negara":"FI",
      "nm_wil":"Finland",
      "asal_wil":null,
      "kode_bps":null,
      "kode_dagri":null,
      "kode_keu":null,
      "id_induk_wilayah":null,
      "id_level_wil":"0"
   },
   {
      "id_wil":"FM000000",
      "id_negara":"FM",
      "nm_wil":"Micronesia, Federated States Of",
      "asal_wil":null,
      "kode_bps":null,
      "kode_dagri":null,
      "kode_keu":null,
      "id_induk_wilayah":null,
      "id_level_wil":"0"
   },
   {
      "id_wil":"FO000000",
      "id_negara":"FO",
      "nm_wil":"Faroe Islands",
      "asal_wil":null,
      "kode_bps":null,
      "kode_dagri":null,
      "kode_keu":null,
      "id_induk_wilayah":null,
      "id_level_wil":"0"
   },
   {
      "id_wil":"FR000000",
      "id_negara":"FR",
      "nm_wil":"France",
      "asal_wil":null,
      "kode_bps":null,
      "kode_dagri":null,
      "kode_keu":null,
      "id_induk_wilayah":null,
      "id_level_wil":"0"
   },
   {
      "id_wil":"GA000000",
      "id_negara":"GA",
      "nm_wil":"Gabon",
      "asal_wil":null,
      "kode_bps":null,
      "kode_dagri":null,
      "kode_keu":null,
      "id_induk_wilayah":null,
      "id_level_wil":"0"
   },
   {
      "id_wil":"GB000000",
      "id_negara":"GB",
      "nm_wil":"United Kingdom",
      "asal_wil":null,
      "kode_bps":null,
      "kode_dagri":null,
      "kode_keu":null,
      "id_induk_wilayah":null,
      "id_level_wil":"0"
   },
   {
      "id_wil":"GD000000",
      "id_negara":"GD",
      "nm_wil":"Grenada",
      "asal_wil":null,
      "kode_bps":null,
      "kode_dagri":null,
      "kode_keu":null,
      "id_induk_wilayah":null,
      "id_level_wil":"0"
   },
   {
      "id_wil":"GE000000",
      "id_negara":"GE",
      "nm_wil":"Georgia",
      "asal_wil":null,
      "kode_bps":null,
      "kode_dagri":null,
      "kode_keu":null,
      "id_induk_wilayah":null,
      "id_level_wil":"0"
   },
   {
      "id_wil":"GF000000",
      "id_negara":"GF",
      "nm_wil":"French Guiana",
      "asal_wil":null,
      "kode_bps":null,
      "kode_dagri":null,
      "kode_keu":null,
      "id_induk_wilayah":null,
      "id_level_wil":"0"
   },
   {
      "id_wil":"GG000000",
      "id_negara":"GG",
      "nm_wil":"Guernsey",
      "asal_wil":null,
      "kode_bps":null,
      "kode_dagri":null,
      "kode_keu":null,
      "id_induk_wilayah":null,
      "id_level_wil":"0"
   },
   {
      "id_wil":"GH000000",
      "id_negara":"GH",
      "nm_wil":"Ghana",
      "asal_wil":null,
      "kode_bps":null,
      "kode_dagri":null,
      "kode_keu":null,
      "id_induk_wilayah":null,
      "id_level_wil":"0"
   },
   {
      "id_wil":"GI000000",
      "id_negara":"GI",
      "nm_wil":"Gibraltar",
      "asal_wil":null,
      "kode_bps":null,
      "kode_dagri":null,
      "kode_keu":null,
      "id_induk_wilayah":null,
      "id_level_wil":"0"
   },
   {
      "id_wil":"GL000000",
      "id_negara":"GL",
      "nm_wil":"Greenland",
      "asal_wil":null,
      "kode_bps":null,
      "kode_dagri":null,
      "kode_keu":null,
      "id_induk_wilayah":null,
      "id_level_wil":"0"
   },
   {
      "id_wil":"GM000000",
      "id_negara":"GM",
      "nm_wil":"Gambia",
      "asal_wil":null,
      "kode_bps":null,
      "kode_dagri":null,
      "kode_keu":null,
      "id_induk_wilayah":null,
      "id_level_wil":"0"
   },
   {
      "id_wil":"GN000000",
      "id_negara":"GN",
      "nm_wil":"Guinea",
      "asal_wil":null,
      "kode_bps":null,
      "kode_dagri":null,
      "kode_keu":null,
      "id_induk_wilayah":null,
      "id_level_wil":"0"
   },
   {
      "id_wil":"GP000000",
      "id_negara":"GP",
      "nm_wil":"Guadeloupe",
      "asal_wil":null,
      "kode_bps":null,
      "kode_dagri":null,
      "kode_keu":null,
      "id_induk_wilayah":null,
      "id_level_wil":"0"
   },
   {
      "id_wil":"GQ000000",
      "id_negara":"GQ",
      "nm_wil":"Equatorial Guinea",
      "asal_wil":null,
      "kode_bps":null,
      "kode_dagri":null,
      "kode_keu":null,
      "id_induk_wilayah":null,
      "id_level_wil":"0"
   },
   {
      "id_wil":"GR000000",
      "id_negara":"GR",
      "nm_wil":"Greece",
      "asal_wil":null,
      "kode_bps":null,
      "kode_dagri":null,
      "kode_keu":null,
      "id_induk_wilayah":null,
      "id_level_wil":"0"
   },
   {
      "id_wil":"GT000000",
      "id_negara":"GT",
      "nm_wil":"Guatemala",
      "asal_wil":null,
      "kode_bps":null,
      "kode_dagri":null,
      "kode_keu":null,
      "id_induk_wilayah":null,
      "id_level_wil":"0"
   },
   {
      "id_wil":"GU000000",
      "id_negara":"GU",
      "nm_wil":"Guam",
      "asal_wil":null,
      "kode_bps":null,
      "kode_dagri":null,
      "kode_keu":null,
      "id_induk_wilayah":null,
      "id_level_wil":"0"
   },
   {
      "id_wil":"GW000000",
      "id_negara":"GW",
      "nm_wil":"Guinea-Bissau",
      "asal_wil":null,
      "kode_bps":null,
      "kode_dagri":null,
      "kode_keu":null,
      "id_induk_wilayah":null,
      "id_level_wil":"0"
   },
   {
      "id_wil":"GY000000",
      "id_negara":"GY",
      "nm_wil":"Guyana",
      "asal_wil":null,
      "kode_bps":null,
      "kode_dagri":null,
      "kode_keu":null,
      "id_induk_wilayah":null,
      "id_level_wil":"0"
   },
   {
      "id_wil":"HK000000",
      "id_negara":"HK",
      "nm_wil":"Hong Kong",
      "asal_wil":null,
      "kode_bps":null,
      "kode_dagri":null,
      "kode_keu":null,
      "id_induk_wilayah":null,
      "id_level_wil":"0"
   },
   {
      "id_wil":"HM000000",
      "id_negara":"HM",
      "nm_wil":"Heard Island And Mcdonald Islands",
      "asal_wil":null,
      "kode_bps":null,
      "kode_dagri":null,
      "kode_keu":null,
      "id_induk_wilayah":null,
      "id_level_wil":"0"
   },
   {
      "id_wil":"HN000000",
      "id_negara":"HN",
      "nm_wil":"Honduras",
      "asal_wil":null,
      "kode_bps":null,
      "kode_dagri":null,
      "kode_keu":null,
      "id_induk_wilayah":null,
      "id_level_wil":"0"
   },
   {
      "id_wil":"HR000000",
      "id_negara":"HR",
      "nm_wil":"Croatia",
      "asal_wil":null,
      "kode_bps":null,
      "kode_dagri":null,
      "kode_keu":null,
      "id_induk_wilayah":null,
      "id_level_wil":"0"
   },
   {
      "id_wil":"HT000000",
      "id_negara":"HT",
      "nm_wil":"Haiti",
      "asal_wil":null,
      "kode_bps":null,
      "kode_dagri":null,
      "kode_keu":null,
      "id_induk_wilayah":null,
      "id_level_wil":"0"
   },
   {
      "id_wil":"HU000000",
      "id_negara":"HU",
      "nm_wil":"Hungary",
      "asal_wil":null,
      "kode_bps":null,
      "kode_dagri":null,
      "kode_keu":null,
      "id_induk_wilayah":null,
      "id_level_wil":"0"
   },
   {
      "id_wil":"IE000000",
      "id_negara":"IE",
      "nm_wil":"Ireland",
      "asal_wil":null,
      "kode_bps":null,
      "kode_dagri":null,
      "kode_keu":null,
      "id_induk_wilayah":null,
      "id_level_wil":"0"
   },
   {
      "id_wil":"IL000000",
      "id_negara":"IL",
      "nm_wil":"Israel",
      "asal_wil":null,
      "kode_bps":null,
      "kode_dagri":null,
      "kode_keu":null,
      "id_induk_wilayah":null,
      "id_level_wil":"0"
   },
   {
      "id_wil":"IN000000",
      "id_negara":"IN",
      "nm_wil":"India",
      "asal_wil":null,
      "kode_bps":null,
      "kode_dagri":null,
      "kode_keu":null,
      "id_induk_wilayah":null,
      "id_level_wil":"0"
   },
   {
      "id_wil":"IO000000",
      "id_negara":"IO",
      "nm_wil":"British Indian Ocean Territory",
      "asal_wil":null,
      "kode_bps":null,
      "kode_dagri":null,
      "kode_keu":null,
      "id_induk_wilayah":null,
      "id_level_wil":"0"
   },
   {
      "id_wil":"IQ000000",
      "id_negara":"IQ",
      "nm_wil":"Iraq",
      "asal_wil":null,
      "kode_bps":null,
      "kode_dagri":null,
      "kode_keu":null,
      "id_induk_wilayah":null,
      "id_level_wil":"0"
   },
   {
      "id_wil":"IR000000",
      "id_negara":"IR",
      "nm_wil":"Iran, Islamic Republic Of",
      "asal_wil":null,
      "kode_bps":null,
      "kode_dagri":null,
      "kode_keu":null,
      "id_induk_wilayah":null,
      "id_level_wil":"0"
   },
   {
      "id_wil":"IS000000",
      "id_negara":"IS",
      "nm_wil":"Iceland",
      "asal_wil":null,
      "kode_bps":null,
      "kode_dagri":null,
      "kode_keu":null,
      "id_induk_wilayah":null,
      "id_level_wil":"0"
   },
   {
      "id_wil":"IT000000",
      "id_negara":"IT",
      "nm_wil":"Italy",
      "asal_wil":null,
      "kode_bps":null,
      "kode_dagri":null,
      "kode_keu":null,
      "id_induk_wilayah":null,
      "id_level_wil":"0"
   },
   {
      "id_wil":"JE000000",
      "id_negara":"JE",
      "nm_wil":"Jersey",
      "asal_wil":null,
      "kode_bps":null,
      "kode_dagri":null,
      "kode_keu":null,
      "id_induk_wilayah":null,
      "id_level_wil":"0"
   },
   {
      "id_wil":"JM000000",
      "id_negara":"JM",
      "nm_wil":"Jamaica",
      "asal_wil":null,
      "kode_bps":null,
      "kode_dagri":null,
      "kode_keu":null,
      "id_induk_wilayah":null,
      "id_level_wil":"0"
   },
   {
      "id_wil":"JO000000",
      "id_negara":"JO",
      "nm_wil":"Jordan",
      "asal_wil":null,
      "kode_bps":null,
      "kode_dagri":null,
      "kode_keu":null,
      "id_induk_wilayah":null,
      "id_level_wil":"0"
   },
   {
      "id_wil":"JP000000",
      "id_negara":"JP",
      "nm_wil":"Japan",
      "asal_wil":null,
      "kode_bps":null,
      "kode_dagri":null,
      "kode_keu":null,
      "id_induk_wilayah":null,
      "id_level_wil":"0"
   },
   {
      "id_wil":"KE000000",
      "id_negara":"KE",
      "nm_wil":"Kenya",
      "asal_wil":null,
      "kode_bps":null,
      "kode_dagri":null,
      "kode_keu":null,
      "id_induk_wilayah":null,
      "id_level_wil":"0"
   },
   {
      "id_wil":"KG000000",
      "id_negara":"KG",
      "nm_wil":"Kyrgyzstan",
      "asal_wil":null,
      "kode_bps":null,
      "kode_dagri":null,
      "kode_keu":null,
      "id_induk_wilayah":null,
      "id_level_wil":"0"
   },
   {
      "id_wil":"KH000000",
      "id_negara":"KH",
      "nm_wil":"Cambodia",
      "asal_wil":null,
      "kode_bps":null,
      "kode_dagri":null,
      "kode_keu":null,
      "id_induk_wilayah":null,
      "id_level_wil":"0"
   },
   {
      "id_wil":"KI000000",
      "id_negara":"KI",
      "nm_wil":"Kiribati",
      "asal_wil":null,
      "kode_bps":null,
      "kode_dagri":null,
      "kode_keu":null,
      "id_induk_wilayah":null,
      "id_level_wil":"0"
   },
   {
      "id_wil":"KM000000",
      "id_negara":"KM",
      "nm_wil":"Comoros",
      "asal_wil":null,
      "kode_bps":null,
      "kode_dagri":null,
      "kode_keu":null,
      "id_induk_wilayah":null,
      "id_level_wil":"0"
   },
   {
      "id_wil":"KN000000",
      "id_negara":"KN",
      "nm_wil":"Saint Kitts And Nevis",
      "asal_wil":null,
      "kode_bps":null,
      "kode_dagri":null,
      "kode_keu":null,
      "id_induk_wilayah":null,
      "id_level_wil":"0"
   },
   {
      "id_wil":"KR000000",
      "id_negara":"KR",
      "nm_wil":"Korea, Republic Of",
      "asal_wil":null,
      "kode_bps":null,
      "kode_dagri":null,
      "kode_keu":null,
      "id_induk_wilayah":null,
      "id_level_wil":"0"
   },
   {
      "id_wil":"LS000000",
      "id_negara":"LS",
      "nm_wil":"Lesotho",
      "asal_wil":null,
      "kode_bps":null,
      "kode_dagri":null,
      "kode_keu":null,
      "id_induk_wilayah":null,
      "id_level_wil":"0"
   },
   {
      "id_wil":"LT000000",
      "id_negara":"LT",
      "nm_wil":"Lithuania",
      "asal_wil":null,
      "kode_bps":null,
      "kode_dagri":null,
      "kode_keu":null,
      "id_induk_wilayah":null,
      "id_level_wil":"0"
   },
   {
      "id_wil":"LV000000",
      "id_negara":"LV",
      "nm_wil":"Latvia",
      "asal_wil":null,
      "kode_bps":null,
      "kode_dagri":null,
      "kode_keu":null,
      "id_induk_wilayah":null,
      "id_level_wil":"0"
   },
   {
      "id_wil":"LY000000",
      "id_negara":"LY",
      "nm_wil":"Libyan Arab Jamahiriya",
      "asal_wil":null,
      "kode_bps":null,
      "kode_dagri":null,
      "kode_keu":null,
      "id_induk_wilayah":null,
      "id_level_wil":"0"
   },
   {
      "id_wil":"MA000000",
      "id_negara":"MA",
      "nm_wil":"Morocco",
      "asal_wil":null,
      "kode_bps":null,
      "kode_dagri":null,
      "kode_keu":null,
      "id_induk_wilayah":null,
      "id_level_wil":"0"
   },
   {
      "id_wil":"MC000000",
      "id_negara":"MC",
      "nm_wil":"Monaco",
      "asal_wil":null,
      "kode_bps":null,
      "kode_dagri":null,
      "kode_keu":null,
      "id_induk_wilayah":null,
      "id_level_wil":"0"
   },
   {
      "id_wil":"ME000000",
      "id_negara":"ME",
      "nm_wil":"Montenegro",
      "asal_wil":null,
      "kode_bps":null,
      "kode_dagri":null,
      "kode_keu":null,
      "id_induk_wilayah":null,
      "id_level_wil":"0"
   },
   {
      "id_wil":"MF000000",
      "id_negara":"MF",
      "nm_wil":"Saint Martin",
      "asal_wil":null,
      "kode_bps":null,
      "kode_dagri":null,
      "kode_keu":null,
      "id_induk_wilayah":null,
      "id_level_wil":"0"
   },
   {
      "id_wil":"MG000000",
      "id_negara":"MG",
      "nm_wil":"Madagascar",
      "asal_wil":null,
      "kode_bps":null,
      "kode_dagri":null,
      "kode_keu":null,
      "id_induk_wilayah":null,
      "id_level_wil":"0"
   },
   {
      "id_wil":"MH000000",
      "id_negara":"MH",
      "nm_wil":"Marshall Islands",
      "asal_wil":null,
      "kode_bps":null,
      "kode_dagri":null,
      "kode_keu":null,
      "id_induk_wilayah":null,
      "id_level_wil":"0"
   },
   {
      "id_wil":"KZ000000",
      "id_negara":"KZ",
      "nm_wil":"Kazakhstan",
      "asal_wil":null,
      "kode_bps":null,
      "kode_dagri":null,
      "kode_keu":null,
      "id_induk_wilayah":null,
      "id_level_wil":"0"
   },
   {
      "id_wil":"LB000000",
      "id_negara":"LB",
      "nm_wil":"Lebanon",
      "asal_wil":null,
      "kode_bps":null,
      "kode_dagri":null,
      "kode_keu":null,
      "id_induk_wilayah":null,
      "id_level_wil":"0"
   },
   {
      "id_wil":"LC000000",
      "id_negara":"LC",
      "nm_wil":"Saint Lucia",
      "asal_wil":null,
      "kode_bps":null,
      "kode_dagri":null,
      "kode_keu":null,
      "id_induk_wilayah":null,
      "id_level_wil":"0"
   },
   {
      "id_wil":"LI000000",
      "id_negara":"LI",
      "nm_wil":"Liechtenstein",
      "asal_wil":null,
      "kode_bps":null,
      "kode_dagri":null,
      "kode_keu":null,
      "id_induk_wilayah":null,
      "id_level_wil":"0"
   },
   {
      "id_wil":"LK000000",
      "id_negara":"LK",
      "nm_wil":"Sri Lanka",
      "asal_wil":null,
      "kode_bps":null,
      "kode_dagri":null,
      "kode_keu":null,
      "id_induk_wilayah":null,
      "id_level_wil":"0"
   },
   {
      "id_wil":"LR000000",
      "id_negara":"LR",
      "nm_wil":"Liberia",
      "asal_wil":null,
      "kode_bps":null,
      "kode_dagri":null,
      "kode_keu":null,
      "id_induk_wilayah":null,
      "id_level_wil":"0"
   },
   {
      "id_wil":"MK000000",
      "id_negara":"MK",
      "nm_wil":"Macedonia, The Former Yugoslav Republic Of",
      "asal_wil":null,
      "kode_bps":null,
      "kode_dagri":null,
      "kode_keu":null,
      "id_induk_wilayah":null,
      "id_level_wil":"0"
   },
   {
      "id_wil":"ML000000",
      "id_negara":"ML",
      "nm_wil":"Mali",
      "asal_wil":null,
      "kode_bps":null,
      "kode_dagri":null,
      "kode_keu":null,
      "id_induk_wilayah":null,
      "id_level_wil":"0"
   },
   {
      "id_wil":"MM000000",
      "id_negara":"MM",
      "nm_wil":"Myanmar",
      "asal_wil":null,
      "kode_bps":null,
      "kode_dagri":null,
      "kode_keu":null,
      "id_induk_wilayah":null,
      "id_level_wil":"0"
   },
   {
      "id_wil":"MN000000",
      "id_negara":"MN",
      "nm_wil":"Mongolia",
      "asal_wil":null,
      "kode_bps":null,
      "kode_dagri":null,
      "kode_keu":null,
      "id_induk_wilayah":null,
      "id_level_wil":"0"
   },
   {
      "id_wil":"MO000000",
      "id_negara":"MO",
      "nm_wil":"Macao",
      "asal_wil":null,
      "kode_bps":null,
      "kode_dagri":null,
      "kode_keu":null,
      "id_induk_wilayah":null,
      "id_level_wil":"0"
   },
   {
      "id_wil":"MP000000",
      "id_negara":"MP",
      "nm_wil":"Northern Mariana Islands",
      "asal_wil":null,
      "kode_bps":null,
      "kode_dagri":null,
      "kode_keu":null,
      "id_induk_wilayah":null,
      "id_level_wil":"0"
   },
   {
      "id_wil":"MQ000000",
      "id_negara":"MQ",
      "nm_wil":"Martinique",
      "asal_wil":null,
      "kode_bps":null,
      "kode_dagri":null,
      "kode_keu":null,
      "id_induk_wilayah":null,
      "id_level_wil":"0"
   },
   {
      "id_wil":"MR000000",
      "id_negara":"MR",
      "nm_wil":"Mauritania",
      "asal_wil":null,
      "kode_bps":null,
      "kode_dagri":null,
      "kode_keu":null,
      "id_induk_wilayah":null,
      "id_level_wil":"0"
   },
   {
      "id_wil":"MS000000",
      "id_negara":"MS",
      "nm_wil":"Montserrat",
      "asal_wil":null,
      "kode_bps":null,
      "kode_dagri":null,
      "kode_keu":null,
      "id_induk_wilayah":null,
      "id_level_wil":"0"
   },
   {
      "id_wil":"MT000000",
      "id_negara":"MT",
      "nm_wil":"Malta",
      "asal_wil":null,
      "kode_bps":null,
      "kode_dagri":null,
      "kode_keu":null,
      "id_induk_wilayah":null,
      "id_level_wil":"0"
   },
   {
      "id_wil":"MU000000",
      "id_negara":"MU",
      "nm_wil":"Mauritius",
      "asal_wil":null,
      "kode_bps":null,
      "kode_dagri":null,
      "kode_keu":null,
      "id_induk_wilayah":null,
      "id_level_wil":"0"
   },
   {
      "id_wil":"MV000000",
      "id_negara":"MV",
      "nm_wil":"Maldives",
      "asal_wil":null,
      "kode_bps":null,
      "kode_dagri":null,
      "kode_keu":null,
      "id_induk_wilayah":null,
      "id_level_wil":"0"
   },
   {
      "id_wil":"MX000000",
      "id_negara":"MX",
      "nm_wil":"Mexico",
      "asal_wil":null,
      "kode_bps":null,
      "kode_dagri":null,
      "kode_keu":null,
      "id_induk_wilayah":null,
      "id_level_wil":"0"
   },
   {
      "id_wil":"MY000000",
      "id_negara":"MY",
      "nm_wil":"Malaysia",
      "asal_wil":null,
      "kode_bps":null,
      "kode_dagri":null,
      "kode_keu":null,
      "id_induk_wilayah":null,
      "id_level_wil":"0"
   },
   {
      "id_wil":"NA000000",
      "id_negara":"NA",
      "nm_wil":"Namibia",
      "asal_wil":null,
      "kode_bps":null,
      "kode_dagri":null,
      "kode_keu":null,
      "id_induk_wilayah":null,
      "id_level_wil":"0"
   },
   {
      "id_wil":"NC000000",
      "id_negara":"NC",
      "nm_wil":"New Caledonia",
      "asal_wil":null,
      "kode_bps":null,
      "kode_dagri":null,
      "kode_keu":null,
      "id_induk_wilayah":null,
      "id_level_wil":"0"
   },
   {
      "id_wil":"NE000000",
      "id_negara":"NE",
      "nm_wil":"Niger",
      "asal_wil":null,
      "kode_bps":null,
      "kode_dagri":null,
      "kode_keu":null,
      "id_induk_wilayah":null,
      "id_level_wil":"0"
   },
   {
      "id_wil":"NF000000",
      "id_negara":"NF",
      "nm_wil":"Norfolk Island",
      "asal_wil":null,
      "kode_bps":null,
      "kode_dagri":null,
      "kode_keu":null,
      "id_induk_wilayah":null,
      "id_level_wil":"0"
   },
   {
      "id_wil":"NG000000",
      "id_negara":"NG",
      "nm_wil":"Nigeria",
      "asal_wil":null,
      "kode_bps":null,
      "kode_dagri":null,
      "kode_keu":null,
      "id_induk_wilayah":null,
      "id_level_wil":"0"
   },
   {
      "id_wil":"NI000000",
      "id_negara":"NI",
      "nm_wil":"Nicaragua",
      "asal_wil":null,
      "kode_bps":null,
      "kode_dagri":null,
      "kode_keu":null,
      "id_induk_wilayah":null,
      "id_level_wil":"0"
   },
   {
      "id_wil":"NL000000",
      "id_negara":"NL",
      "nm_wil":"Netherlands",
      "asal_wil":null,
      "kode_bps":null,
      "kode_dagri":null,
      "kode_keu":null,
      "id_induk_wilayah":null,
      "id_level_wil":"0"
   },
   {
      "id_wil":"NO000000",
      "id_negara":"NO",
      "nm_wil":"Norway",
      "asal_wil":null,
      "kode_bps":null,
      "kode_dagri":null,
      "kode_keu":null,
      "id_induk_wilayah":null,
      "id_level_wil":"0"
   },
   {
      "id_wil":"NP000000",
      "id_negara":"NP",
      "nm_wil":"Nepal",
      "asal_wil":null,
      "kode_bps":null,
      "kode_dagri":null,
      "kode_keu":null,
      "id_induk_wilayah":null,
      "id_level_wil":"0"
   },
   {
      "id_wil":"NR000000",
      "id_negara":"NR",
      "nm_wil":"Nauru",
      "asal_wil":null,
      "kode_bps":null,
      "kode_dagri":null,
      "kode_keu":null,
      "id_induk_wilayah":null,
      "id_level_wil":"0"
   },
   {
      "id_wil":"NU000000",
      "id_negara":"NU",
      "nm_wil":"Niue",
      "asal_wil":null,
      "kode_bps":null,
      "kode_dagri":null,
      "kode_keu":null,
      "id_induk_wilayah":null,
      "id_level_wil":"0"
   },
   {
      "id_wil":"NZ000000",
      "id_negara":"NZ",
      "nm_wil":"New Zealand",
      "asal_wil":null,
      "kode_bps":null,
      "kode_dagri":null,
      "kode_keu":null,
      "id_induk_wilayah":null,
      "id_level_wil":"0"
   },
   {
      "id_wil":"OM000000",
      "id_negara":"OM",
      "nm_wil":"Oman",
      "asal_wil":null,
      "kode_bps":null,
      "kode_dagri":null,
      "kode_keu":null,
      "id_induk_wilayah":null,
      "id_level_wil":"0"
   },
   {
      "id_wil":"PA000000",
      "id_negara":"PA",
      "nm_wil":"Panama",
      "asal_wil":null,
      "kode_bps":null,
      "kode_dagri":null,
      "kode_keu":null,
      "id_induk_wilayah":null,
      "id_level_wil":"0"
   },
   {
      "id_wil":"PE000000",
      "id_negara":"PE",
      "nm_wil":"Peru",
      "asal_wil":null,
      "kode_bps":null,
      "kode_dagri":null,
      "kode_keu":null,
      "id_induk_wilayah":null,
      "id_level_wil":"0"
   },
   {
      "id_wil":"PF000000",
      "id_negara":"PF",
      "nm_wil":"French Polynesia",
      "asal_wil":null,
      "kode_bps":null,
      "kode_dagri":null,
      "kode_keu":null,
      "id_induk_wilayah":null,
      "id_level_wil":"0"
   },
   {
      "id_wil":"PG000000",
      "id_negara":"PG",
      "nm_wil":"Papua New Guinea",
      "asal_wil":null,
      "kode_bps":null,
      "kode_dagri":null,
      "kode_keu":null,
      "id_induk_wilayah":null,
      "id_level_wil":"0"
   },
   {
      "id_wil":"PH000000",
      "id_negara":"PH",
      "nm_wil":"Philippines",
      "asal_wil":null,
      "kode_bps":null,
      "kode_dagri":null,
      "kode_keu":null,
      "id_induk_wilayah":null,
      "id_level_wil":"0"
   },
   {
      "id_wil":"PK000000",
      "id_negara":"PK",
      "nm_wil":"Pakistan",
      "asal_wil":null,
      "kode_bps":null,
      "kode_dagri":null,
      "kode_keu":null,
      "id_induk_wilayah":null,
      "id_level_wil":"0"
   },
   {
      "id_wil":"PL000000",
      "id_negara":"PL",
      "nm_wil":"Poland",
      "asal_wil":null,
      "kode_bps":null,
      "kode_dagri":null,
      "kode_keu":null,
      "id_induk_wilayah":null,
      "id_level_wil":"0"
   },
   {
      "id_wil":"PR000000",
      "id_negara":"PR",
      "nm_wil":"Puerto Rico",
      "asal_wil":null,
      "kode_bps":null,
      "kode_dagri":null,
      "kode_keu":null,
      "id_induk_wilayah":null,
      "id_level_wil":"0"
   },
   {
      "id_wil":"PS000000",
      "id_negara":"PS",
      "nm_wil":"Palestinian Territory, Occupied",
      "asal_wil":null,
      "kode_bps":null,
      "kode_dagri":null,
      "kode_keu":null,
      "id_induk_wilayah":null,
      "id_level_wil":"0"
   },
   {
      "id_wil":"PT000000",
      "id_negara":"PT",
      "nm_wil":"Portugal",
      "asal_wil":null,
      "kode_bps":null,
      "kode_dagri":null,
      "kode_keu":null,
      "id_induk_wilayah":null,
      "id_level_wil":"0"
   },
   {
      "id_wil":"PW000000",
      "id_negara":"PW",
      "nm_wil":"Palau",
      "asal_wil":null,
      "kode_bps":null,
      "kode_dagri":null,
      "kode_keu":null,
      "id_induk_wilayah":null,
      "id_level_wil":"0"
   },
   {
      "id_wil":"PY000000",
      "id_negara":"PY",
      "nm_wil":"Paraguay",
      "asal_wil":null,
      "kode_bps":null,
      "kode_dagri":null,
      "kode_keu":null,
      "id_induk_wilayah":null,
      "id_level_wil":"0"
   },
   {
      "id_wil":"QA000000",
      "id_negara":"QA",
      "nm_wil":"Qatar",
      "asal_wil":null,
      "kode_bps":null,
      "kode_dagri":null,
      "kode_keu":null,
      "id_induk_wilayah":null,
      "id_level_wil":"0"
   },
   {
      "id_wil":"RE000000",
      "id_negara":"RE",
      "nm_wil":"Reunion",
      "asal_wil":null,
      "kode_bps":null,
      "kode_dagri":null,
      "kode_keu":null,
      "id_induk_wilayah":null,
      "id_level_wil":"0"
   },
   {
      "id_wil":"RO000000",
      "id_negara":"RO",
      "nm_wil":"Romania",
      "asal_wil":null,
      "kode_bps":null,
      "kode_dagri":null,
      "kode_keu":null,
      "id_induk_wilayah":null,
      "id_level_wil":"0"
   },
   {
      "id_wil":"RS000000",
      "id_negara":"RS",
      "nm_wil":"Serbia",
      "asal_wil":null,
      "kode_bps":null,
      "kode_dagri":null,
      "kode_keu":null,
      "id_induk_wilayah":null,
      "id_level_wil":"0"
   },
   {
      "id_wil":"RU000000",
      "id_negara":"RU",
      "nm_wil":"Russian Federation",
      "asal_wil":null,
      "kode_bps":null,
      "kode_dagri":null,
      "kode_keu":null,
      "id_induk_wilayah":null,
      "id_level_wil":"0"
   },
   {
      "id_wil":"RW000000",
      "id_negara":"RW",
      "nm_wil":"Rwanda",
      "asal_wil":null,
      "kode_bps":null,
      "kode_dagri":null,
      "kode_keu":null,
      "id_induk_wilayah":null,
      "id_level_wil":"0"
   },
   {
      "id_wil":"SA000000",
      "id_negara":"SA",
      "nm_wil":"Saudi Arabia",
      "asal_wil":null,
      "kode_bps":null,
      "kode_dagri":null,
      "kode_keu":null,
      "id_induk_wilayah":null,
      "id_level_wil":"0"
   },
   {
      "id_wil":"SB000000",
      "id_negara":"SB",
      "nm_wil":"Solomon Islands",
      "asal_wil":null,
      "kode_bps":null,
      "kode_dagri":null,
      "kode_keu":null,
      "id_induk_wilayah":null,
      "id_level_wil":"0"
   },
   {
      "id_wil":"SC000000",
      "id_negara":"SC",
      "nm_wil":"Seychelles",
      "asal_wil":null,
      "kode_bps":null,
      "kode_dagri":null,
      "kode_keu":null,
      "id_induk_wilayah":null,
      "id_level_wil":"0"
   },
   {
      "id_wil":"SD000000",
      "id_negara":"SD",
      "nm_wil":"Sudan",
      "asal_wil":null,
      "kode_bps":null,
      "kode_dagri":null,
      "kode_keu":null,
      "id_induk_wilayah":null,
      "id_level_wil":"0"
   },
   {
      "id_wil":"SE000000",
      "id_negara":"SE",
      "nm_wil":"Sweden",
      "asal_wil":null,
      "kode_bps":null,
      "kode_dagri":null,
      "kode_keu":null,
      "id_induk_wilayah":null,
      "id_level_wil":"0"
   },
   {
      "id_wil":"SG000000",
      "id_negara":"SG",
      "nm_wil":"Singapore",
      "asal_wil":null,
      "kode_bps":null,
      "kode_dagri":null,
      "kode_keu":null,
      "id_induk_wilayah":null,
      "id_level_wil":"0"
   },
   {
      "id_wil":"SH000000",
      "id_negara":"SH",
      "nm_wil":"Saint Helena",
      "asal_wil":null,
      "kode_bps":null,
      "kode_dagri":null,
      "kode_keu":null,
      "id_induk_wilayah":null,
      "id_level_wil":"0"
   },
   {
      "id_wil":"SI000000",
      "id_negara":"SI",
      "nm_wil":"Slovenia",
      "asal_wil":null,
      "kode_bps":null,
      "kode_dagri":null,
      "kode_keu":null,
      "id_induk_wilayah":null,
      "id_level_wil":"0"
   },
   {
      "id_wil":"SK000000",
      "id_negara":"SK",
      "nm_wil":"Slovakia",
      "asal_wil":null,
      "kode_bps":null,
      "kode_dagri":null,
      "kode_keu":null,
      "id_induk_wilayah":null,
      "id_level_wil":"0"
   },
   {
      "id_wil":"SL000000",
      "id_negara":"SL",
      "nm_wil":"Sierra Leone",
      "asal_wil":null,
      "kode_bps":null,
      "kode_dagri":null,
      "kode_keu":null,
      "id_induk_wilayah":null,
      "id_level_wil":"0"
   },
   {
      "id_wil":"SM000000",
      "id_negara":"SM",
      "nm_wil":"San Marino",
      "asal_wil":null,
      "kode_bps":null,
      "kode_dagri":null,
      "kode_keu":null,
      "id_induk_wilayah":null,
      "id_level_wil":"0"
   },
   {
      "id_wil":"SN000000",
      "id_negara":"SN",
      "nm_wil":"Senegal",
      "asal_wil":null,
      "kode_bps":null,
      "kode_dagri":null,
      "kode_keu":null,
      "id_induk_wilayah":null,
      "id_level_wil":"0"
   },
   {
      "id_wil":"SO000000",
      "id_negara":"SO",
      "nm_wil":"Somalia",
      "asal_wil":null,
      "kode_bps":null,
      "kode_dagri":null,
      "kode_keu":null,
      "id_induk_wilayah":null,
      "id_level_wil":"0"
   },
   {
      "id_wil":"TD000000",
      "id_negara":"TD",
      "nm_wil":"Chad",
      "asal_wil":null,
      "kode_bps":null,
      "kode_dagri":null,
      "kode_keu":null,
      "id_induk_wilayah":null,
      "id_level_wil":"0"
   },
   {
      "id_wil":"TF000000",
      "id_negara":"TF",
      "nm_wil":"French Southern Territories",
      "asal_wil":null,
      "kode_bps":null,
      "kode_dagri":null,
      "kode_keu":null,
      "id_induk_wilayah":null,
      "id_level_wil":"0"
   },
   {
      "id_wil":"TG000000",
      "id_negara":"TG",
      "nm_wil":"Togo",
      "asal_wil":null,
      "kode_bps":null,
      "kode_dagri":null,
      "kode_keu":null,
      "id_induk_wilayah":null,
      "id_level_wil":"0"
   },
   {
      "id_wil":"TH000000",
      "id_negara":"TH",
      "nm_wil":"Thailand",
      "asal_wil":null,
      "kode_bps":null,
      "kode_dagri":null,
      "kode_keu":null,
      "id_induk_wilayah":null,
      "id_level_wil":"0"
   },
   {
      "id_wil":"TJ000000",
      "id_negara":"TJ",
      "nm_wil":"Tajikistan",
      "asal_wil":null,
      "kode_bps":null,
      "kode_dagri":null,
      "kode_keu":null,
      "id_induk_wilayah":null,
      "id_level_wil":"0"
   },
   {
      "id_wil":"TK000000",
      "id_negara":"TK",
      "nm_wil":"Tokelau",
      "asal_wil":null,
      "kode_bps":null,
      "kode_dagri":null,
      "kode_keu":null,
      "id_induk_wilayah":null,
      "id_level_wil":"0"
   },
   {
      "id_wil":"TL000000",
      "id_negara":"TL",
      "nm_wil":"Timor-Leste",
      "asal_wil":null,
      "kode_bps":null,
      "kode_dagri":null,
      "kode_keu":null,
      "id_induk_wilayah":null,
      "id_level_wil":"0"
   },
   {
      "id_wil":"TN000000",
      "id_negara":"TN",
      "nm_wil":"Tunisia",
      "asal_wil":null,
      "kode_bps":null,
      "kode_dagri":null,
      "kode_keu":null,
      "id_induk_wilayah":null,
      "id_level_wil":"0"
   },
   {
      "id_wil":"TO000000",
      "id_negara":"TO",
      "nm_wil":"Tonga",
      "asal_wil":null,
      "kode_bps":null,
      "kode_dagri":null,
      "kode_keu":null,
      "id_induk_wilayah":null,
      "id_level_wil":"0"
   },
   {
      "id_wil":"TR000000",
      "id_negara":"TR",
      "nm_wil":"Turkey",
      "asal_wil":null,
      "kode_bps":null,
      "kode_dagri":null,
      "kode_keu":null,
      "id_induk_wilayah":null,
      "id_level_wil":"0"
   },
   {
      "id_wil":"TT000000",
      "id_negara":"TT",
      "nm_wil":"Trinidad And Tobago",
      "asal_wil":null,
      "kode_bps":null,
      "kode_dagri":null,
      "kode_keu":null,
      "id_induk_wilayah":null,
      "id_level_wil":"0"
   },
   {
      "id_wil":"TV000000",
      "id_negara":"TV",
      "nm_wil":"Tuvalu",
      "asal_wil":null,
      "kode_bps":null,
      "kode_dagri":null,
      "kode_keu":null,
      "id_induk_wilayah":null,
      "id_level_wil":"0"
   },
   {
      "id_wil":"TW000000",
      "id_negara":"TW",
      "nm_wil":"Taiwan, Province Of China",
      "asal_wil":null,
      "kode_bps":null,
      "kode_dagri":null,
      "kode_keu":null,
      "id_induk_wilayah":null,
      "id_level_wil":"0"
   },
   {
      "id_wil":"TZ000000",
      "id_negara":"TZ",
      "nm_wil":"Tanzania, United Republic Of",
      "asal_wil":null,
      "kode_bps":null,
      "kode_dagri":null,
      "kode_keu":null,
      "id_induk_wilayah":null,
      "id_level_wil":"0"
   },
   {
      "id_wil":"UA000000",
      "id_negara":"UA",
      "nm_wil":"Ukraine",
      "asal_wil":null,
      "kode_bps":null,
      "kode_dagri":null,
      "kode_keu":null,
      "id_induk_wilayah":null,
      "id_level_wil":"0"
   },
   {
      "id_wil":"UG000000",
      "id_negara":"UG",
      "nm_wil":"Uganda",
      "asal_wil":null,
      "kode_bps":null,
      "kode_dagri":null,
      "kode_keu":null,
      "id_induk_wilayah":null,
      "id_level_wil":"0"
   },
   {
      "id_wil":"SS000000",
      "id_negara":"SS",
      "nm_wil":"South Sudan",
      "asal_wil":null,
      "kode_bps":null,
      "kode_dagri":null,
      "kode_keu":null,
      "id_induk_wilayah":null,
      "id_level_wil":"0"
   },
   {
      "id_wil":"ST000000",
      "id_negara":"ST",
      "nm_wil":"Sao Tome And Principe",
      "asal_wil":null,
      "kode_bps":null,
      "kode_dagri":null,
      "kode_keu":null,
      "id_induk_wilayah":null,
      "id_level_wil":"0"
   },
   {
      "id_wil":"SV000000",
      "id_negara":"SV",
      "nm_wil":"El Salvador",
      "asal_wil":null,
      "kode_bps":null,
      "kode_dagri":null,
      "kode_keu":null,
      "id_induk_wilayah":null,
      "id_level_wil":"0"
   },
   {
      "id_wil":"SX000000",
      "id_negara":"SX",
      "nm_wil":"Sint Maarten",
      "asal_wil":null,
      "kode_bps":null,
      "kode_dagri":null,
      "kode_keu":null,
      "id_induk_wilayah":null,
      "id_level_wil":"0"
   },
   {
      "id_wil":"SY000000",
      "id_negara":"SY",
      "nm_wil":"Syrian Arab Republic",
      "asal_wil":null,
      "kode_bps":null,
      "kode_dagri":null,
      "kode_keu":null,
      "id_induk_wilayah":null,
      "id_level_wil":"0"
   },
   {
      "id_wil":"SZ000000",
      "id_negara":"SZ",
      "nm_wil":"Swaziland",
      "asal_wil":null,
      "kode_bps":null,
      "kode_dagri":null,
      "kode_keu":null,
      "id_induk_wilayah":null,
      "id_level_wil":"0"
   },
   {
      "id_wil":"TC000000",
      "id_negara":"TC",
      "nm_wil":"Turks And Caicos Islands",
      "asal_wil":null,
      "kode_bps":null,
      "kode_dagri":null,
      "kode_keu":null,
      "id_induk_wilayah":null,
      "id_level_wil":"0"
   },
   {
      "id_wil":"UM000000",
      "id_negara":"UM",
      "nm_wil":"United States Minor Outlying Islands",
      "asal_wil":null,
      "kode_bps":null,
      "kode_dagri":null,
      "kode_keu":null,
      "id_induk_wilayah":null,
      "id_level_wil":"0"
   },
   {
      "id_wil":"US000000",
      "id_negara":"US",
      "nm_wil":"United States",
      "asal_wil":null,
      "kode_bps":null,
      "kode_dagri":null,
      "kode_keu":null,
      "id_induk_wilayah":null,
      "id_level_wil":"0"
   },
   {
      "id_wil":"UY000000",
      "id_negara":"UY",
      "nm_wil":"Uruguay",
      "asal_wil":null,
      "kode_bps":null,
      "kode_dagri":null,
      "kode_keu":null,
      "id_induk_wilayah":null,
      "id_level_wil":"0"
   },
   {
      "id_wil":"UZ000000",
      "id_negara":"UZ",
      "nm_wil":"Uzbekistan",
      "asal_wil":null,
      "kode_bps":null,
      "kode_dagri":null,
      "kode_keu":null,
      "id_induk_wilayah":null,
      "id_level_wil":"0"
   },
   {
      "id_wil":"VA000000",
      "id_negara":"VA",
      "nm_wil":"Holy See (Vatican City State)",
      "asal_wil":null,
      "kode_bps":null,
      "kode_dagri":null,
      "kode_keu":null,
      "id_induk_wilayah":null,
      "id_level_wil":"0"
   },
   {
      "id_wil":"VC000000",
      "id_negara":"VC",
      "nm_wil":"Saint Vincent And The Grenadines",
      "asal_wil":null,
      "kode_bps":null,
      "kode_dagri":null,
      "kode_keu":null,
      "id_induk_wilayah":null,
      "id_level_wil":"0"
   },
   {
      "id_wil":"VE000000",
      "id_negara":"VE",
      "nm_wil":"Venezuela",
      "asal_wil":null,
      "kode_bps":null,
      "kode_dagri":null,
      "kode_keu":null,
      "id_induk_wilayah":null,
      "id_level_wil":"0"
   },
   {
      "id_wil":"VG000000",
      "id_negara":"VG",
      "nm_wil":"Virgin Islands, British",
      "asal_wil":null,
      "kode_bps":null,
      "kode_dagri":null,
      "kode_keu":null,
      "id_induk_wilayah":null,
      "id_level_wil":"0"
   },
   {
      "id_wil":"VI000000",
      "id_negara":"VI",
      "nm_wil":"Virgin Islands, U.S.",
      "asal_wil":null,
      "kode_bps":null,
      "kode_dagri":null,
      "kode_keu":null,
      "id_induk_wilayah":null,
      "id_level_wil":"0"
   },
   {
      "id_wil":"VN000000",
      "id_negara":"VN",
      "nm_wil":"Viet Nam",
      "asal_wil":null,
      "kode_bps":null,
      "kode_dagri":null,
      "kode_keu":null,
      "id_induk_wilayah":null,
      "id_level_wil":"0"
   },
   {
      "id_wil":"VU000000",
      "id_negara":"VU",
      "nm_wil":"Vanuatu",
      "asal_wil":null,
      "kode_bps":null,
      "kode_dagri":null,
      "kode_keu":null,
      "id_induk_wilayah":null,
      "id_level_wil":"0"
   },
   {
      "id_wil":"WS000000",
      "id_negara":"WS",
      "nm_wil":"Samoa",
      "asal_wil":null,
      "kode_bps":null,
      "kode_dagri":null,
      "kode_keu":null,
      "id_induk_wilayah":null,
      "id_level_wil":"0"
   },
   {
      "id_wil":"YE000000",
      "id_negara":"YE",
      "nm_wil":"Yemen",
      "asal_wil":null,
      "kode_bps":null,
      "kode_dagri":null,
      "kode_keu":null,
      "id_induk_wilayah":null,
      "id_level_wil":"0"
   },
   {
      "id_wil":"YT000000",
      "id_negara":"YT",
      "nm_wil":"Mayotte",
      "asal_wil":null,
      "kode_bps":null,
      "kode_dagri":null,
      "kode_keu":null,
      "id_induk_wilayah":null,
      "id_level_wil":"0"
   },
   {
      "id_wil":"ZM000000",
      "id_negara":"ZM",
      "nm_wil":"Zambia",
      "asal_wil":null,
      "kode_bps":null,
      "kode_dagri":null,
      "kode_keu":null,
      "id_induk_wilayah":null,
      "id_level_wil":"0"
   },
   {
      "id_wil":"ZW000000",
      "id_negara":"ZW",
      "nm_wil":"Zimbabwe",
      "asal_wil":null,
      "kode_bps":null,
      "kode_dagri":null,
      "kode_keu":null,
      "id_induk_wilayah":null,
      "id_level_wil":"0"
   },
   {
      "id_wil":"AX000000",
      "id_negara":"AX",
      "nm_wil":"Aland Islands",
      "asal_wil":null,
      "kode_bps":null,
      "kode_dagri":null,
      "kode_keu":null,
      "id_induk_wilayah":null,
      "id_level_wil":"0"
   },
   {
      "id_wil":"CC000000",
      "id_negara":"CC",
      "nm_wil":"Cocos (Keeling) Islands",
      "asal_wil":null,
      "kode_bps":null,
      "kode_dagri":null,
      "kode_keu":null,
      "id_induk_wilayah":null,
      "id_level_wil":"0"
   },
   {
      "id_wil":"CD000000",
      "id_negara":"CD",
      "nm_wil":"Congo, The Democratic Republic Of The",
      "asal_wil":null,
      "kode_bps":null,
      "kode_dagri":null,
      "kode_keu":null,
      "id_induk_wilayah":null,
      "id_level_wil":"0"
   },
   {
      "id_wil":"FK000000",
      "id_negara":"FK",
      "nm_wil":"Falkland Islands (Malvinas)",
      "asal_wil":null,
      "kode_bps":null,
      "kode_dagri":null,
      "kode_keu":null,
      "id_induk_wilayah":null,
      "id_level_wil":"0"
   },
   {
      "id_wil":"IM000000",
      "id_negara":"IM",
      "nm_wil":"Isle Of Man",
      "asal_wil":null,
      "kode_bps":null,
      "kode_dagri":null,
      "kode_keu":null,
      "id_induk_wilayah":null,
      "id_level_wil":"0"
   },
   {
      "id_wil":"KP000000",
      "id_negara":"KP",
      "nm_wil":"Korea, Democratic People'S Republic Of",
      "asal_wil":null,
      "kode_bps":null,
      "kode_dagri":null,
      "kode_keu":null,
      "id_induk_wilayah":null,
      "id_level_wil":"0"
   },
   {
      "id_wil":"KW000000",
      "id_negara":"KW",
      "nm_wil":"Kuwait",
      "asal_wil":null,
      "kode_bps":null,
      "kode_dagri":null,
      "kode_keu":null,
      "id_induk_wilayah":null,
      "id_level_wil":"0"
   },
   {
      "id_wil":"LU000000",
      "id_negara":"LU",
      "nm_wil":"Luxembourg",
      "asal_wil":null,
      "kode_bps":null,
      "kode_dagri":null,
      "kode_keu":null,
      "id_induk_wilayah":null,
      "id_level_wil":"0"
   },
   {
      "id_wil":"MZ000000",
      "id_negara":"MZ",
      "nm_wil":"Mozambique",
      "asal_wil":null,
      "kode_bps":null,
      "kode_dagri":null,
      "kode_keu":null,
      "id_induk_wilayah":null,
      "id_level_wil":"0"
   },
   {
      "id_wil":"PM000000",
      "id_negara":"PM",
      "nm_wil":"Saint Pierre And Miquelon",
      "asal_wil":null,
      "kode_bps":null,
      "kode_dagri":null,
      "kode_keu":null,
      "id_induk_wilayah":null,
      "id_level_wil":"0"
   },
   {
      "id_wil":"SR000000",
      "id_negara":"SR",
      "nm_wil":"Suriname",
      "asal_wil":null,
      "kode_bps":null,
      "kode_dagri":null,
      "kode_keu":null,
      "id_induk_wilayah":null,
      "id_level_wil":"0"
   },
   {
      "id_wil":"TM000000",
      "id_negara":"TM",
      "nm_wil":"Turkmenistan",
      "asal_wil":null,
      "kode_bps":null,
      "kode_dagri":null,
      "kode_keu":null,
      "id_induk_wilayah":null,
      "id_level_wil":"0"
   },
   {
      "id_wil":"ZA000000",
      "id_negara":"ZA",
      "nm_wil":"South Africa",
      "asal_wil":null,
      "kode_bps":null,
      "kode_dagri":null,
      "kode_keu":null,
      "id_induk_wilayah":null,
      "id_level_wil":"0"
   },
   {
      "id_wil":"000000 ",
      "id_negara":"ID",
      "nm_wil":"Indonesia ",
      "asal_wil":null,
      "kode_bps":null,
      "kode_dagri":null,
      "kode_keu":null,
      "id_induk_wilayah":null,
      "id_level_wil":"0"
   },
   {
      "id_wil":"LA000000",
      "id_negara":"LA",
      "nm_wil":"Lao People'S Democratic Republic",
      "asal_wil":null,
      "kode_bps":null,
      "kode_dagri":null,
      "kode_keu":null,
      "id_induk_wilayah":null,
      "id_level_wil":"0"
   },
   {
      "id_wil":"AN000000",
      "id_negara":"AN",
      "nm_wil":"Netherlands Antilles",
      "asal_wil":null,
      "kode_bps":null,
      "kode_dagri":null,
      "kode_keu":null,
      "id_induk_wilayah":null,
      "id_level_wil":"0"
   },
   {
      "id_wil":"CA000000",
      "id_negara":"CA",
      "nm_wil":"Canada",
      "asal_wil":null,
      "kode_bps":null,
      "kode_dagri":null,
      "kode_keu":null,
      "id_induk_wilayah":null,
      "id_level_wil":"0"
   },
   {
      "id_wil":"CF000000",
      "id_negara":"CF",
      "nm_wil":"Central African Republic",
      "asal_wil":null,
      "kode_bps":null,
      "kode_dagri":null,
      "kode_keu":null,
      "id_induk_wilayah":null,
      "id_level_wil":"0"
   },
   {
      "id_wil":"FJ000000",
      "id_negara":"FJ",
      "nm_wil":"Fiji",
      "asal_wil":null,
      "kode_bps":null,
      "kode_dagri":null,
      "kode_keu":null,
      "id_induk_wilayah":null,
      "id_level_wil":"0"
   },
   {
      "id_wil":"GS000000",
      "id_negara":"GS",
      "nm_wil":"South Georgia And The South Sandwich Islands",
      "asal_wil":null,
      "kode_bps":null,
      "kode_dagri":null,
      "kode_keu":null,
      "id_induk_wilayah":null,
      "id_level_wil":"0"
   },
   {
      "id_wil":"KY000000",
      "id_negara":"KY",
      "nm_wil":"Cayman Islands",
      "asal_wil":null,
      "kode_bps":null,
      "kode_dagri":null,
      "kode_keu":null,
      "id_induk_wilayah":null,
      "id_level_wil":"0"
   },
   {
      "id_wil":"MD000000",
      "id_negara":"MD",
      "nm_wil":"Moldova, Republic Of",
      "asal_wil":null,
      "kode_bps":null,
      "kode_dagri":null,
      "kode_keu":null,
      "id_induk_wilayah":null,
      "id_level_wil":"0"
   },
   {
      "id_wil":"MW000000",
      "id_negara":"MW",
      "nm_wil":"Malawi",
      "asal_wil":null,
      "kode_bps":null,
      "kode_dagri":null,
      "kode_keu":null,
      "id_induk_wilayah":null,
      "id_level_wil":"0"
   },
   {
      "id_wil":"PN000000",
      "id_negara":"PN",
      "nm_wil":"Pitcairn",
      "asal_wil":null,
      "kode_bps":null,
      "kode_dagri":null,
      "kode_keu":null,
      "id_induk_wilayah":null,
      "id_level_wil":"0"
   },
   {
      "id_wil":"SJ000000",
      "id_negara":"SJ",
      "nm_wil":"Svalbard And Jan Mayen",
      "asal_wil":null,
      "kode_bps":null,
      "kode_dagri":null,
      "kode_keu":null,
      "id_induk_wilayah":null,
      "id_level_wil":"0"
   },
   {
      "id_wil":"WF000000",
      "id_negara":"WF",
      "nm_wil":"Wallis And Futuna",
      "asal_wil":null,
      "kode_bps":null,
      "kode_dagri":null,
      "kode_keu":null,
      "id_induk_wilayah":null,
      "id_level_wil":"0"
   }
]